Replicating and Extending the UD scores of Pemstein, Meserve, and Melton • democracyData
…
##  num [1:9137, 1:2] -1.89 -1.89 -1.57 -1.57 -1.45 ...
##  - attr(*, "dimnames")=List of 2
##   ..$ : NULL
##   ..$ : chr [1:2] "F1" "SE_F1"

replication_2011_scores <- democracy_scores(model = replication_2011_model)

replication_2011_scores <- bind_cols(democracy_data, replication_2011_scores)

# A data frame with confidence intervals and country-years:

replication_2011_scores

## # A tibble: 9,137 x 30
##    extended_country_name   GWn  cown in_GW_system  year pmm_vanhanen pmm_prc
##    <chr>                 <dbl> <int> <lgl>        <dbl>        <dbl>   <dbl>
##  1 Afghanistan             700   700 TRUE          1946            0       1
##  2 Afghanistan             700   700 TRUE          1947            0       1
##  3 Afghanistan             700   700 TRUE          1948            0       1
##  4 Afghanistan             700   700 TRUE          1949            0       1
##  5 Afghanistan             700   700 TRUE          1950            0       1
##  6 Afghanistan             700   700 TRUE          1951            0       1
##  7 Afghanistan             700   700 TRUE          1952            0       1
##  8 Afghanistan             700   700 TRUE          1953            0       1
##  9 Afghanistan             700   700 TRUE          1954            0       1
## 10 Afghanistan             700   700 TRUE          1955            0       1
## # ... with 9,127 more rows, and 23 more variables: pmm_polyarchy <dbl>,
## #   pmm_pacl <dbl>, pmm_munck <dbl>, pmm_mainwaring <dbl>, pmm_hadenius <dbl>,
## #   pmm_bollen <dbl>, pmm_blm <dbl>, pmm_arat <dbl>, pmm_polity <dbl>,
## #   pmm_fh <dbl>, z1 <dbl>, se_z1 <dbl>, z1_pct975 <dbl>, z1_pct025 <dbl>,
## #   z1_adj <dbl>, z1_pct975_adj <dbl>, z1_pct025_adj <dbl>, z1_as_prob <dbl>,
## #   z1_pct975_as_prob <dbl>, z1_pct025_as_prob <dbl>, z1_adj_as_prob <dbl>,
## #   z1_pct975_adj_as_prob <dbl>, z1_pct025_adj_as_prob <dbl>
…
It is also possible to to set the cutpoint for this index at, for example, the average cutpoint in the latent variable of the dichotomous indexes of democracy (so that 0.5 correponds more naturally to the point at which a regime could be either democratic or non-democratic according to the dichotomous measures of democracy included in your model). These scores are also automatically calculated (they are in the column z1_adj) but they can also be manually added as follows:

cutpoints_extended <- cutpoints(extended_model)

cutpoints_extended

## # A tibble: 101 x 6
##    variable                     estimate pct025 pct975      se num_obs
##    <chr>                           <dbl>  <dbl>  <dbl>   <dbl>   <int>
##  1 pmm_arat                       -0.595 -0.599 -0.592 0.00186    3873
##  2 pmm_arat                       -0.256 -0.267 -0.243 0.00626    3873
##  3 pmm_arat                        0.186  0.155  0.220 0.0175     3873
##  4 pmm_arat                        0.481  0.429  0.538 0.0291     3873
##  5 pmm_arat                        0.879  0.794  0.971 0.0473     3873
##  6 pmm_arat                        1.68   1.53   1.85  0.0840     3873
##  7 blm                             0.445  0.277  0.709 0.135       505
##  8 blm                             1.04   0.663  1.64  0.305       505
##  9 bmr_democracy_femalesuffrage    0.812  0.721  0.915 0.0524    18244
## 10 pmm_bollen                     -0.730 -0.736 -0.721 0.00447     510
## # ... with 91 more rows
…
Extracting useful information from a model

The mirt package offers a great number of powerful tools to examine and diagnose the fitted model, including functions to extract model cutpoints and item information curves. But this package also contains two convenience functions that wrap mirt tools to quickly extract democracy rater discrimination parameters, rater cutoffs, and rater information curves from a model produced by this procedure in a tidy data frame format suitable for graphing. Here, for example, we can replicate the figures in PMM’s original paper:

replication_2011_cutpoints <- cutpoints(replication_2011_model, type ="score")
replication_2011_cutpoints

## # A tibble: 85 x 6
##    variable     estimate  pct025  pct975     se num_obs
##    <chr>           <dbl>   <dbl>   <dbl>  <dbl>   <int>
##  1 pmm_vanhanen  -0.163  -0.186  -0.137  0.0129    8965
##  2 pmm_vanhanen   0.138   0.104   0.176  0.0191    8965
##  3 pmm_vanhanen   0.424   0.377   0.475  0.0259    8965
##  4 pmm_vanhanen   0.750   0.687   0.818  0.0347    8965
##  5 pmm_vanhanen   1.01    0.931   1.09   0.0423    8965
##  6 pmm_vanhanen   1.31    1.22    1.41   0.0517    8965
##  7 pmm_vanhanen   1.74    1.62    1.87   0.0666    8965
##  8 pmm_prc       -0.133  -0.156  -0.107  0.0134    6002
##  9 pmm_prc       -0.0609 -0.0877 -0.0305 0.0155    6002
## 10 pmm_prc        0.312   0.261   0.371  0.0301    6002
## # ... with 75 more rows
…
# And we can plot item information curves for each rater:
replication_2011_info <- raterinfo(replication_2011_model)
replication_2011_info

## # A tibble: 732 x 3
##    rater        theta     info
##    <chr>        <dbl>    <dbl>
##  1 pmm_vanhanen  -6   3.36e-10
##  2 pmm_vanhanen  -5.8 7.84e-10
##  3 pmm_vanhanen  -5.6 1.83e- 9
##  4 pmm_vanhanen  -5.4 4.26e- 9
##  5 pmm_vanhanen  -5.2 9.92e- 9
##  6 pmm_vanhanen  -5   2.31e- 8
##  7 pmm_vanhanen  -4.8 5.39e- 8
##  8 pmm_vanhanen  -4.6 1.26e- 7
##  9 pmm_vanhanen  -4.4 2.93e- 7
## 10 pmm_vanhanen  -4.2 6.83e- 7
## # ... with 722 more rows
…
