Access and Manipulate Most Available Democracy Datasets • democracyData
…
This package archives a large number of datasets measuring democracy in use in the scholarly literature, and it provides functions to access many others. You can use it to access some widely used datasets, including Polity5, Freedom House, Geddes, Wright, and Frantz’ autocratic regimes dataset, the Lexical Index of Electoral Democracy, the DD/ACLP/PACL/CGV dataset, the main indexes of the V-Dem dataset, and many others.

Installation

The package is only available on Github. Install as follows:

remotes::install_github("xmarquez/democracyData")

Basic usage

For the vast majority of use cases, you can just type the name of the dataset you require. For example, here’s the DD/ACLP/PACL/CGV dataset:

library(democracyData)
pacl
#> # A tibble: 9,159 x 82
#>    order pacl_country  year aclpcode pacl_cowcode cowcode2 ccdcodelet ccdcodenum
#>    <dbl> <chr>        <dbl>    <dbl>        <dbl>    <dbl> <chr>           <dbl>
#>  1     1 Afghanistan   1946      142          700      700 AFG                 1
#>  2     2 Afghanistan   1947      142          700      700 AFG                 1
#>  3     3 Afghanistan   1948      142          700      700 AFG                 1
#>  4     4 Afghanistan   1949      142          700      700 AFG                 1
#>  5     5 Afghanistan   1950      142          700      700 AFG                 1
#>  6     6 Afghanistan   1951      142          700      700 AFG                 1
#>  7     7 Afghanistan   1952      142          700      700 AFG                 1
#>  8     8 Afghanistan   1953      142          700      700 AFG                 1
#>  9     9 Afghanistan   1954      142          700      700 AFG                 1
#> 10    10 Afghanistan   1955      142          700      700 AFG                 1
#> # ... with 9,149 more rows, and 74 more variables: aclpyear <dbl>,
#> #   cowcode2year <dbl>, cowcodeyear <dbl>, chgterr <dbl>, ychgterr <dbl>,
#> #   flagc_cowcode2 <dbl>, flage_cowcode2 <dbl>, entryy <dbl>, exity <dbl>,
#> #   cid <dbl>, wdicode <chr>, imf_code <dbl>, politycode <dbl>,
#> #   bankscode <dbl>, dpicode <chr>, uncode <dbl>, un_region <dbl>,
#> #   un_region_name <chr>, un_continent <dbl>, un_continent_name <chr>,
#> #   aclp_region <dbl>, bornyear <dbl>, endyear <dbl>, dupcow <dbl>, ...

Here’s Polity IV:

polityIV
#> # A tibble: 17,562 x 40
#>    cyear polityIV_ccode scode polityIV_country  year  flag fragment democ autoc
#>    <dbl>          <dbl> <chr> <chr>            <dbl> <dbl>    <dbl> <dbl> <dbl>
#>  1 21800              2 USA   United States     1800     0       NA     7     3
#>  2 21801              2 USA   United States     1801     0       NA     7     3
#>  3 21802              2 USA   United States     1802     0       NA     7     3
#>  4 21803              2 USA   United States     1803     0       NA     7     3
#>  5 21804              2 USA   United States     1804     0       NA     7     3
#>  6 21805              2 USA   United States     1805     0       NA     7     3
#>  7 21806              2 USA   United States     1806     0       NA     7     3
#>  8 21807              2 USA   United States     1807     0       NA     7     3
#>  9 21808              2 USA   United States     1808     0       NA     7     3
#> 10 21809              2 USA   United States     1809     0       NA     9     0
#> # ... with 17,552 more rows, and 31 more variables: polity <dbl>,
#> #   polity2 <dbl>, durable <dbl>, xrreg <dbl>, xrcomp <dbl>, xropen <dbl>,
#> #   xconst <dbl>, parreg <dbl>, parcomp <dbl>, exrec <dbl>, exconst <dbl>,
#> #   polcomp <dbl>, prior <dbl>, emonth <dbl>, eday <dbl>, eyear <dbl>,
#> #   eprec <dbl>, interim <dbl>, bmonth <dbl>, bday <dbl>, byear <dbl>,
#> #   bprec <dbl>, post <dbl>, change <dbl>, d4 <dbl>, sf <dbl>, regtrans <dbl>,
#> #   extended_country_name <chr>, GWn <dbl>, cown <int>, in_GW_system <lgl>

And here’s a basic version of the V-Dem dataset, including only the 7 main indexes of democracy:

vdem_simple
#> # A tibble: 27,380 x 54
#>    vdem_country_name country_text_id country_id  year historical_date project
#>    <chr>             <chr>                <dbl> <dbl> <date>            <dbl>
#>  1 Mexico            MEX                      3  1789 1789-12-31            1
#>  2 Mexico            MEX                      3  1790 1790-12-31            1
#>  3 Mexico            MEX                      3  1791 1791-12-31            1
#>  4 Mexico            MEX                      3  1792 1792-12-31            1
#>  5 Mexico            MEX                      3  1793 1793-12-31            1
#>  6 Mexico            MEX                      3  1794 1794-12-31            1
#>  7 Mexico            MEX                      3  1795 1795-12-31            1
#>  8 Mexico            MEX                      3  1796 1796-12-31            1
#>  9 Mexico            MEX                      3  1797 1797-12-31            1
#> 10 Mexico            MEX                      3  1798 1798-12-31            1
#> # ... with 27,370 more rows, and 48 more variables: historical <dbl>,
#> #   histname <chr>, codingstart <dbl>, codingend <dbl>,
#> #   codingstart_contemp <dbl>, codingend_contemp <dbl>, codingstart_hist <dbl>,
#> #   codingend_hist <dbl>, gapstart1 <dbl>, gapstart2 <dbl>, gapstart3 <dbl>,
#> #   gapend1 <dbl>, gapend2 <dbl>, gapend3 <dbl>, gap_index <dbl>,
#> #   vdem_cowcode <dbl>, v2x_polyarchy <dbl>, v2x_polyarchy_codelow <dbl>,
#> #   v2x_polyarchy_codehigh <dbl>, v2x_polyarchy_sd <dbl>, v2x_libdem <dbl>, ...
All datasets in this package are fully documented; type ?pacl for example to see the documentation for the PACL dataset.

Downloading democracy data

Three democracy datasets are not currently archived in this package: the family of datasets released by Freedom House; the Polity5 dataset (which superceded Polity IV); and the Voice and Accountability indexes of the World Governance Indicators. (The full V-Dem dataset is also not archived here; you can access it via the vdemdata package). To download these datasets, use the the download_* family of functions.

For example, we can download and process the Freedom House “Freedom in the World” dataset as follows:

fh <- download_fh(verbose = FALSE)
#> Warning in download_fh(verbose = FALSE): NAs introduced by coercion

#> Warning in download_fh(verbose = FALSE): NAs introduced by coercion

fh 
#> # A tibble: 8,850 x 11
#>    fh_country   year    pr    cl status fh_total fh_total_reversed
#>    <chr>       <dbl> <dbl> <dbl> <fct>     <dbl>             <dbl>
#>  1 Afghanistan  1972     4     5 PF            9                 5
#>  2 Afghanistan  1973     7     6 NF           13                 1
#>  3 Afghanistan  1974     7     6 NF           13                 1
#>  4 Afghanistan  1975     7     6 NF           13                 1
#>  5 Afghanistan  1976     7     6 NF           13                 1
#>  6 Afghanistan  1977     6     6 NF           12                 2
#>  7 Afghanistan  1978     7     7 NF           14                 0
#>  8 Afghanistan  1979     7     7 NF           14                 0
#>  9 Afghanistan  1980     7     7 NF           14                 0
#> 10 Afghanistan  1982     7     7 NF           14                 0
#> # ... with 8,840 more rows, and 4 more variables: extended_country_name <chr>,
#> #   GWn <dbl>, cown <int>, in_GW_system <lgl>

This downloads the latest update of the “Freedom in the World” dataset (1972-2021, corresponding to the 2022 report), puts it in country-year format (extracting the relevant info from the awful Excel table that Freedom House makes available), calculates the variables fh_total and fh_total_reversed, and adds state system information, including a standardized country name, the Gleditsch-Ward country code and the Correlates of War country code.

Other democracy datasets included in this package do not need to be downloaded, but they can often also be “re-downloaded” from the websites of their creators or maintainers if required. For example, one can either access PACL directly by typing

pacl
#> # A tibble: 9,159 x 82
#>    order pacl_country  year aclpcode pacl_cowcode cowcode2 ccdcodelet ccdcodenum
#>    <dbl> <chr>        <dbl>    <dbl>        <dbl>    <dbl> <chr>           <dbl>
#>  1     1 Afghanistan   1946      142          700      700 AFG                 1
#>  2     2 Afghanistan   1947      142          700      700 AFG                 1
#>  3     3 Afghanistan   1948      142          700      700 AFG                 1
#>  4     4 Afghanistan   1949      142          700      700 AFG                 1
#>  5     5 Afghanistan   1950      142          700      700 AFG                 1
#>  6     6 Afghanistan   1951      142          700      700 AFG                 1
#>  7     7 Afghanistan   1952      142          700      700 AFG                 1
#>  8     8 Afghanistan   1953      142          700      700 AFG                 1
#>  9     9 Afghanistan   1954      142          700      700 AFG                 1
#> 10    10 Afghanistan   1955      142          700      700 AFG                 1
#> # ... with 9,149 more rows, and 74 more variables: aclpyear <dbl>,
#> #   cowcode2year <dbl>, cowcodeyear <dbl>, chgterr <dbl>, ychgterr <dbl>,
#> #   flagc_cowcode2 <dbl>, flage_cowcode2 <dbl>, entryy <dbl>, exity <dbl>,
#> #   cid <dbl>, wdicode <chr>, imf_code <dbl>, politycode <dbl>,
#> #   bankscode <dbl>, dpicode <chr>, uncode <dbl>, un_region <dbl>,
#> #   un_region_name <chr>, un_continent <dbl>, un_continent_name <chr>,
#> #   aclp_region <dbl>, bornyear <dbl>, endyear <dbl>, dupcow <dbl>, ...

Or re-download the dataset from Jose Antonio Cheibub’s website as follows:

pacl_redownloaded <- redownload_pacl(verbose = FALSE)

pacl_redownloaded
#> # A tibble: 9,159 x 82
#>    order pacl_country  year aclpcode pacl_cowcode cowcode2 ccdcodelet ccdcodenum
#>    <dbl> <chr>        <dbl>    <dbl>        <dbl>    <dbl> <chr>           <dbl>
#>  1     1 Afghanistan   1946      142          700      700 AFG                 1
#>  2     2 Afghanistan   1947      142          700      700 AFG                 1
#>  3     3 Afghanistan   1948      142          700      700 AFG                 1
#>  4     4 Afghanistan   1949      142          700      700 AFG                 1
#>  5     5 Afghanistan   1950      142          700      700 AFG                 1
#>  6     6 Afghanistan   1951      142          700      700 AFG                 1
#>  7     7 Afghanistan   1952      142          700      700 AFG                 1
#>  8     8 Afghanistan   1953      142          700      700 AFG                 1
#>  9     9 Afghanistan   1954      142          700      700 AFG                 1
#> 10    10 Afghanistan   1955      142          700      700 AFG                 1
#> # ... with 9,149 more rows, and 74 more variables: aclpyear <dbl>,
#> #   cowcode2year <dbl>, cowcodeyear <dbl>, chgterr <dbl>, ychgterr <dbl>,
#> #   flagc_cowcode2 <dbl>, flage_cowcode2 <dbl>, entryy <dbl>, exity <dbl>,
#> #   cid <dbl>, wdicode <chr>, imf_code <dbl>, politycode <dbl>,
#> #   bankscode <dbl>, dpicode <chr>, uncode <dbl>, un_region <dbl>,
#> #   un_region_name <chr>, un_continent <dbl>, un_continent_name <chr>,
#> #   aclp_region <dbl>, bornyear <dbl>, endyear <dbl>, dupcow <dbl>, ...
…
Combining all democracy datasets

You can create one huge data frame including all democracy measures with one call:

democracy_data <- generate_democracy_scores_dataset(output_format = "wide",
                                                    verbose = FALSE)
#> Warning in download_fh(verbose = verbose, include_territories = TRUE): NAs
#> introduced by coercion

#> Warning in download_fh(verbose = verbose, include_territories = TRUE): NAs
#> introduced by coercion

democracy_data
#> # A tibble: 36,894 x 89
#>    extended_country_name   GWn  cown in_GW_system  year anckar_democracy
#>    <chr>                 <dbl> <int> <lgl>        <dbl>            <dbl>
#>  1 Abkhazia                396    NA FALSE         1997               NA
#>  2 Abkhazia                396    NA FALSE         1998               NA
#>  3 Abkhazia                396    NA FALSE         1999               NA
#>  4 Abkhazia                396    NA FALSE         2000               NA
#>  5 Abkhazia                396    NA FALSE         2001               NA
#>  6 Abkhazia                396    NA FALSE         2002               NA
#>  7 Abkhazia                396    NA FALSE         2003               NA
#>  8 Abkhazia                396    NA FALSE         2004               NA
#>  9 Abkhazia                396    NA FALSE         2005               NA
#> 10 Abkhazia                396    NA FALSE         2006               NA
#> # ... with 36,884 more rows, and 83 more variables: anrr_democracy <dbl>,
#> #   blm <dbl>, bmr_democracy <dbl>, bmr_democracy_femalesuffrage <dbl>,
#> #   bmr_democracy_omitteddata <dbl>, bnr <dbl>, bnr_extended <dbl>,
#> #   bti_democracy <dbl>, csvmdi <dbl>, doorenspleet <dbl>, dsvmdi <dbl>,
#> #   eiu <dbl>, fh_electoral <dbl>, fh_total_reversed <dbl>,
#> #   gwf_democracy_extended <dbl>, gwf_democracy_extended_strict <dbl>,
#> #   kailitz_binary <dbl>, kailitz_tri <dbl>, lexical_index <dbl>, ...

This can take some time, since it downloads all downloadable datasets (Freedom House, Polity 5, and the WGI Voice and Accountability index), processes them (adds state system information, puts them in country-year format, fixes wrong codes, etc.), and matches them to all the other datasets. In any case, you can select exactly which datasets to include in your big data frame. See ?generate_democracy_scores_dataset for further options to customize the output.

Latent Variable Indexes of Democracy

The package also offers a series of convenience functions to calculate latent variable indexes of democracy (following Pemstein, Meserve, and Melton’s 2010 article “Democratic Compromise: A Latent Variable Analysis of Ten Measures of Regime Type”); see the vignette on Replicating and Extending the UD scores of Pemstein, Meserve, and Melton. It also contains a pre-calculated extended version of these scores, available as extended_uds:

extended_uds
#> # A tibble: 36,544 x 20
#>    extended_country_name   GWn  cown in_GW_system  year     z1 se_z1 z1_pct975
#>    <chr>                 <dbl> <int> <lgl>        <dbl>  <dbl> <dbl>     <dbl>
#>  1 Abkhazia                396    NA FALSE         1997 0.0335 0.329     0.678
#>  2 Abkhazia                396    NA FALSE         1998 0.0335 0.329     0.678
#>  3 Abkhazia                396    NA FALSE         1999 0.0335 0.329     0.678
#>  4 Abkhazia                396    NA FALSE         2000 0.0335 0.329     0.678
#>  5 Abkhazia                396    NA FALSE         2001 0.0335 0.329     0.678
#>  6 Abkhazia                396    NA FALSE         2002 0.0335 0.329     0.678
#>  7 Abkhazia                396    NA FALSE         2003 0.0335 0.329     0.678
#>  8 Abkhazia                396    NA FALSE         2004 0.0335 0.329     0.678
#>  9 Abkhazia                396    NA FALSE         2005 0.238  0.327     0.880
#> 10 Abkhazia                396    NA FALSE         2006 0.238  0.327     0.880
#> # ... with 36,534 more rows, and 12 more variables: z1_pct025 <dbl>,
#> #   z1_adj <dbl>, z1_pct975_adj <dbl>, z1_pct025_adj <dbl>, z1_as_prob <dbl>,
#> #   z1_pct975_as_prob <dbl>, z1_pct025_as_prob <dbl>, z1_adj_as_prob <dbl>,
#> #   z1_pct975_adj_as_prob <dbl>, z1_pct025_adj_as_prob <dbl>,
#> #   num_measures <int>, measures <list>
…
country_year_coder tries to match not just the country name or the country code (as countrycode does), but also to figure out the appropriate state system code given the year. (Above, for example, the function figures out that Germany 1970 should get a COW code of 260, but Germany 1992 should get 255 - though it should retain the 260 code in the Gleditsch and Ward system of states. This is, incidentally, how download_fh adds the correct COW and GW country codes to Freedom House’s Excel data). It also tries to figure out whether a given country-year is in the specific state system list. (In the example above, Germany in 1945 is not listed as a member of the state system in either COW or Gleditsch and Ward, since it was occupied by the Allies as of 31 December 1945, but is listed as a member of the state system in Polity IV as the Federal Republic, though with a polity score of -66, “interregnum”).

One nice thing about country_year_coder (in my humble opinion!) is that it can sometimes correct country coding errors; I’ve run across more than one dataset with the supposed COW code 255 for the Federal Republic of Germany for the period 1955-1990, which would prevent a clean join to a dataset with the correct COW code, but would be caught by country_year_coder.

There is also a function that allows you to create a blank state system panel for any of the three main state systems:

create_panel(system = "cow")
#> # A tibble: 17,036 x 5
#>     cown cow_country_name         cow_startdate cow_enddate  year
#>    <int> <chr>                    <date>        <date>      <dbl>
#>  1     2 United States of America 1816-01-01    NA           1816
#>  2     2 United States of America 1816-01-01    NA           1817
#>  3     2 United States of America 1816-01-01    NA           1818
#>  4     2 United States of America 1816-01-01    NA           1819
#>  5     2 United States of America 1816-01-01    NA           1820
#>  6     2 United States of America 1816-01-01    NA           1821
#>  7     2 United States of America 1816-01-01    NA           1822
#>  8     2 United States of America 1816-01-01    NA           1823
#>  9     2 United States of America 1816-01-01    NA           1824
#> 10     2 United States of America 1816-01-01    NA           1825
#> # ... with 17,026 more rows

create_panel(system = "GW")
#> # A tibble: 19,938 x 5
#>      GWn GW_country_name          GW_startdate GW_enddate  year
#>    <dbl> <chr>                    <date>       <date>     <dbl>
#>  1     2 United States of America 1816-01-01   NA          1816
#>  2     2 United States of America 1816-01-01   NA          1817
#>  3     2 United States of America 1816-01-01   NA          1818
#>  4     2 United States of America 1816-01-01   NA          1819
#>  5     2 United States of America 1816-01-01   NA          1820
#>  6     2 United States of America 1816-01-01   NA          1821
#>  7     2 United States of America 1816-01-01   NA          1822
#>  8     2 United States of America 1816-01-01   NA          1823
#>  9     2 United States of America 1816-01-01   NA          1824
#> 10     2 United States of America 1816-01-01   NA          1825
#> # ... with 19,928 more rows
…
