Replicating and Extending the UD scores of Pemstein, Meserve, and Melton • democracyData
…
 num [1:9137, 1:2] -1.89 -1.89 -1.57 -1.57 -1.45 ...
 - attr(*, "dimnames")=List of 2
  ..$ : NULL
  ..$ : chr [1:2] "F1" "SE_F1"

replication_2011_scores <- democracy_scores(model = replication_2011_model)

replication_2011_scores <- bind_cols(democracy_data, replication_2011_scores)

# A data frame with confidence intervals and country-years:

replication_2011_scores

# A tibble: 9,137 × 30
   extended_country_name   GWn  cown in_GW_system  year pmm_arat pmm_blm
   <chr>                 <dbl> <dbl> <lgl>        <dbl>    <dbl>   <dbl>
 1 Afghanistan             700   700 TRUE          1946       NA      NA
 2 Afghanistan             700   700 TRUE          1947       NA      NA
 3 Afghanistan             700   700 TRUE          1948       54      NA
 4 Afghanistan             700   700 TRUE          1949       55      NA
 5 Afghanistan             700   700 TRUE          1950       54      NA
 6 Afghanistan             700   700 TRUE          1951       55      NA
 7 Afghanistan             700   700 TRUE          1952       56      NA
 8 Afghanistan             700   700 TRUE          1953       55      NA
 9 Afghanistan             700   700 TRUE          1954       56      NA
10 Afghanistan             700   700 TRUE          1955       54      NA
# ℹ 9,127 more rows
# ℹ 23 more variables: pmm_bollen <dbl>, pmm_fh <dbl>, pmm_hadenius <dbl>,
#   pmm_mainwaring <dbl>, pmm_munck <dbl>, pmm_pacl <dbl>, pmm_polity <dbl>,
#   pmm_polyarchy <dbl>, pmm_prc <dbl>, pmm_vanhanen <dbl>, z1 <dbl>,
#   se_z1 <dbl>, z1_pct975 <dbl>, z1_pct025 <dbl>, z1_adj <dbl>,
#   z1_pct975_adj <dbl>, z1_pct025_adj <dbl>, z1_as_prob <dbl>,
#   z1_pct975_as_prob <dbl>, z1_pct025_as_prob <dbl>, z1_adj_as_prob <dbl>, …
…
It is also possible to to set the cutpoint for this index at, for example, the average cutpoint in the latent variable of the dichotomous indexes of democracy (so that 0.5 correponds more naturally to the point at which a regime could be either democratic or non-democratic according to the dichotomous measures of democracy included in your model). These scores are also automatically calculated (they are in the column z1_adj) but they can also be manually added as follows:

cutpoints_extended <- cutpoints(extended_model)

cutpoints_extended

# A tibble: 101 × 6
   variable                     estimate pct025 pct975      se num_obs
   <chr>                           <dbl>  <dbl>  <dbl>   <dbl>   <int>
 1 arat                           -0.511 -0.515 -0.506 0.00253    3873
 2 arat                           -0.183 -0.195 -0.169 0.00704    3873
 3 arat                            0.249  0.215  0.286 0.0189     3873
 4 arat                            0.537  0.482  0.597 0.0307     3873
 5 arat                            0.922  0.835  1.02  0.0486     3873
 6 arat                            1.70   1.55   1.87  0.0843     3873
 7 blm                             0.491  0.310  0.774 0.145       505
 8 blm                             1.08   0.691  1.70  0.313       505
 9 bmr_democracy_femalesuffrage    0.856  0.754  0.972 0.0590    19126
10 pmm_bollen                     -0.646 -0.655 -0.633 0.00638     510
# ℹ 91 more rows
…
Extracting useful information from a model

The mirt package offers a great number of powerful tools to examine and diagnose the fitted model, including functions to extract model cutpoints and item information curves. But this package also contains two convenience functions that wrap mirt tools to quickly extract democracy rater discrimination parameters, rater cutoffs, and rater information curves from a model produced by this procedure in a tidy data frame format suitable for graphing. Here, for example, we can replicate the figures in PMM’s original paper:

replication_2011_cutpoints <- cutpoints(replication_2011_model, type ="score")
replication_2011_cutpoints

# A tibble: 85 × 6
   variable   estimate  pct025    pct975      se num_obs
   <chr>         <dbl>   <dbl>     <dbl>   <dbl>   <int>
 1 pmm_arat   -1.43    -1.42   -1.44     0.00526    3873
 2 pmm_arat   -1.02    -1.02   -1.01     0.00150    3873
 3 pmm_arat   -0.427   -0.449  -0.403    0.0124     3873
 4 pmm_arat   -0.0422  -0.0795 -0.000821 0.0211     3873
 5 pmm_arat    0.421    0.357   0.491    0.0361     3873
 6 pmm_arat    1.42     1.28    1.58     0.0798     3873
 7 pmm_blm    -0.00364 -0.0451  0.0889   0.0472      275
 8 pmm_blm     0.473    0.219   1.04     0.290       275
 9 pmm_bollen -1.53    -1.50   -1.55     0.0145      510
10 pmm_bollen -1.08    -1.07   -1.08     0.00243     510
# ℹ 75 more rows
…
# And we can plot item information curves for each rater:
replication_2011_info <- raterinfo(replication_2011_model)
replication_2011_info

# A tibble: 732 × 3
   rater    theta       info
   <chr>    <dbl>      <dbl>
 1 pmm_arat  -6   0.00000122
 2 pmm_arat  -5.8 0.00000247
 3 pmm_arat  -5.6 0.00000501
 4 pmm_arat  -5.4 0.0000102
 5 pmm_arat  -5.2 0.0000206
 6 pmm_arat  -5   0.0000418
 7 pmm_arat  -4.8 0.0000847
 8 pmm_arat  -4.6 0.000172
 9 pmm_arat  -4.4 0.000349
10 pmm_arat  -4.2 0.000707
# ℹ 722 more rows
…
