Country-Year State System Coding — country_year_coder • democracyData
…
#> |SUDAN, SOUTH               |   626|South Sudan                             | 626|  626|     2011|     2020|  10|
#> |SURINAME                   |   115|Surinam                                 | 115|  115|     1975|     2020|  46|
#> |TANZANIA                   |   510|Tanzania/Tanganyika                     | 510|  510|     1961|     2020|  60|
#> |TRINIDAD & TOBAGO          |    52|Trinidad and Tobago                     |  52|   52|     1962|     2020|  59|
#> |TURKEY                     |   640|Turkey (Ottoman Empire)                 | 640|  640|     1800|     2020| 221|
#> |USSR                       |   364|Russia (Soviet Union)                   | 365|  365|     1922|     1991|  70|
#> |VIETNAM                    |   818|Vietnam, Democratic Republic of         | 816|  816|     1976|     2020|  45|
#> |VIETNAM, NORTH             |   816|Vietnam, Democratic Republic of         | 816|  816|     1954|     1975|  22|
#> |VIETNAM, SOUTH             |   817|Vietnam, Republic of                    | 817|  817|     1955|     1975|  21|
#> |YEMEN                      |   679|Yemen (Arab Republic of Yemen)          | 678|  679|     1990|     2020|  31|
#> |YEMEN, NORTH               |   678|Yemen (Arab Republic of Yemen)          | 678|  678|     1918|     1989|  72|
#> |YEMEN, SOUTH               |   680|Yemen, People's Republic of             | 680|  680|     1967|     1989|  23|
#> |YUGOSLAVIA, FED. REP.      |   347|Yugoslavia                              | 345|  345|     1991|     2006|  16|
#> |ZIMBABWE                   |   552|Zimbabwe (Rhodesia)                     | 552|  552|     1923|     2020|  98|
#> # A tibble: 19,775 × 15
#>    country  ccode abbreviation abbreviation_undp  year democracy democracy_trans
#>    <chr>    <dbl> <chr>        <chr>             <dbl>     <dbl>           <dbl>
#>  1 UNITED …     2 USA          USA                1800         1               0
#>  2 UNITED …     2 USA          USA                1801         1               0
#>  3 UNITED …     2 USA          USA                1802         1               0
#>  4 UNITED …     2 USA          USA                1803         1               0
#>  5 UNITED …     2 USA          USA                1804         1               0
#>  6 UNITED …     2 USA          USA                1805         1               0
#>  7 UNITED …     2 USA          USA                1806         1               0
#>  8 UNITED …     2 USA          USA                1807         1               0
#>  9 UNITED …     2 USA          USA                1808         1               0
#> 10 UNITED …     2 USA          USA                1809         1               0
#> # ℹ 19,765 more rows
#> # ℹ 8 more variables: democracy_breakdowns <dbl>, democracy_duration <dbl>,
#> #   democracy_omitteddata <dbl>, democracy_femalesuffrage <dbl>,
#> #   extended_country_name <chr>, GWn <dbl>, cown <dbl>, in_GW_system <lgl>
…
