Extract UD scores from a UD model — democracy_scores • democracyData
…
democracy_data <- prepare_democracy_data(democracy_data)

replication_2011_model <- mirt(democracy_data |> 
  select(matches("pmm")), model = 1, itemtype = "graded", SE = TRUE, verbose = FALSE)

democracy_scores(model = replication_2011_model)
#> # A tibble: 9,137 × 13
#>       z1 se_z1 z1_pct975 z1_pct025 z1_adj z1_pct975_adj z1_pct025_adj z1_as_prob
#>    <dbl> <dbl>     <dbl>     <dbl>  <dbl>         <dbl>         <dbl>      <dbl>
#>  1 -1.89 0.486    -0.933     -2.84  -2.03         -1.08         -2.99     0.0297
#>  2 -1.89 0.486    -0.933     -2.84  -2.03         -1.08         -2.99     0.0297
#>  3 -1.57 0.323    -0.940     -2.21  -1.72         -1.09         -2.35     0.0578
#>  4 -1.57 0.323    -0.940     -2.21  -1.72         -1.09         -2.35     0.0578
#>  5 -1.45 0.230    -0.998     -1.90  -1.59         -1.14         -2.04     0.0739
#>  6 -1.57 0.323    -0.940     -2.21  -1.72         -1.09         -2.35     0.0578
#>  7 -1.57 0.323    -0.940     -2.21  -1.72         -1.09         -2.35     0.0578
#>  8 -1.57 0.323    -0.940     -2.21  -1.72         -1.09         -2.35     0.0578
#>  9 -1.57 0.323    -0.940     -2.21  -1.72         -1.09         -2.35     0.0578
#> 10 -1.45 0.230    -0.998     -1.90  -1.59         -1.14         -2.04     0.0739
#> # ℹ 9,127 more rows
#> # ℹ 5 more variables: z1_pct975_as_prob <dbl>, z1_pct025_as_prob <dbl>,
#> #   z1_adj_as_prob <dbl>, z1_pct975_adj_as_prob <dbl>,
#> #   z1_pct025_adj_as_prob <dbl>
…
