The Lexical Index of Democracy, v. 5.2 — LIED • democracyData
…
lexical_indexTo generate the lexical index from these six binary
variables, a country-year is assigned the highest score (L0-6) for which it
fulfills all requisite criteria, as follows:L0: LEGSELEC=0 & EXSELEC=0.L1: LEGSELEC=1 or EXSELEC=1.L2: LEGSELEC=1 & OPPOSITION=1.L3: LEGSELEC=1 & OPPOSITION=1 & EXSELEC=1.L4: LEGSELEC=1 & OPPOSITION=1 & EXSELEC=1 & COMPETITION=1.L5: LEGSELEC=1 & OPPOSITION=1 & EXSELEC=1 & COMPETITION=1 & (MALE
SUFFRAGE=1 or FEMALE SUFFRAGE=1).L6: LEGSELEC=1 & OPPOSITION=1 & EXSELEC=1 & COMPETITION=1 & MALE SUFFRAGE=1
& FEMALE SUFFRAGE=1.In a small number of cases, the resulting index appears to have been
incorrectly constructed:
## # A tibble: 28 x 4
##    lied_country  year lexical_index lexical_index_original
##    <chr>        <dbl>         <dbl>                  <dbl>
##  1 Netherlands   1917             5                      4
##  2 San Marino    1921             3                      1
##  3 San Marino    1922             3                      1
##  4 Australia     1876             2                      4
##  5 Australia     1877             2                      4
##  6 Australia     1878             2                      4
##  7 Australia     1879             2                      4
##  8 Australia     1880             2                      4
##  9 Australia     1881             2                      4
## 10 Australia     1882             2                      4
## # ... with 18 more rows
…
